{
  "files": {
    "main.css": "/fair_split_app/static/css/main.e3526b83.chunk.css",
    "main.js": "/fair_split_app/static/js/main.1c762b78.chunk.js",
    "main.js.map": "/fair_split_app/static/js/main.1c762b78.chunk.js.map",
    "runtime-main.js": "/fair_split_app/static/js/runtime-main.62f58222.js",
    "runtime-main.js.map": "/fair_split_app/static/js/runtime-main.62f58222.js.map",
    "static/js/2.e9071f01.chunk.js": "/fair_split_app/static/js/2.e9071f01.chunk.js",
    "static/js/2.e9071f01.chunk.js.map": "/fair_split_app/static/js/2.e9071f01.chunk.js.map",
    "static/js/3.36438f12.chunk.js": "/fair_split_app/static/js/3.36438f12.chunk.js",
    "static/js/3.36438f12.chunk.js.map": "/fair_split_app/static/js/3.36438f12.chunk.js.map",
    "index.html": "/fair_split_app/index.html",
    "static/css/main.e3526b83.chunk.css.map": "/fair_split_app/static/css/main.e3526b83.chunk.css.map",
    "static/js/2.e9071f01.chunk.js.LICENSE.txt": "/fair_split_app/static/js/2.e9071f01.chunk.js.LICENSE.txt"
  },
  "entrypoints": [
    "static/js/runtime-main.62f58222.js",
    "static/js/2.e9071f01.chunk.js",
    "static/css/main.e3526b83.chunk.css",
    "static/js/main.1c762b78.chunk.js"
  ]
}